708567 981948
929926 214966
78869 109593
173665 271856
355406 630669
822196 608976
712130 497203
706782 720364
73776 919408
138889 770101
418755 7275
790415 319007
485 758026
337906 890797
746433 300465
67747 551900
362522 664444
65694 506342
886952 258145
283510 920667
884277 798327
972862 853439
409748 221988
79407 967201
303490 49783
601113 438124
781812 648232
933132 522079
525832 852119
594615 688999
632945 489670
415469 49437
859154 369891
824609 732858
324488 494665
771299 985974
78051 781914
43866 657135
225190 234590
330923 24366
185774 54414
948138 153860
515726 136701
899149 736456
943503 496368
658409 51011
562796 412977
290458 718417
564400 41519
262780 831354
980084 170203
927991 509974
780781 862381
388142 762121
488241 358505
613482 860144
294084 104492
624573 875074
840002 416157
953993 43478
304629 864115
583851 149965
740913 550981
889152 864467
564182 99655
743526 464381
213198 55992
540951 30375
27900 457491
75940 454270
282971 441154
374851 857737
182337 972027
92941 531570
202876 224924
213316 175995
55806 880276
830804 60935
990806 84849
919845 445222
510223 356150
435662 671998
637759 357265
608065 560067
477506 152548
385066 761723
151201 335747
343039 336926
818642 881706
258631 303780
480273 553777
855357 931761
350344 219657
846782 699233
209551 158264
938856 143086
208516 452028
184622 196825
459641 753479
8110 888517
730070 495189
162840 54421
39032 374544
238771 722280
125304 541471
588470 564337
94153 134259
136003 41789
426536 758688
455979 860269
591891 205937
649943 20901
236542 696535
92839 213751
660107 891548
218851 89918
989748 756083
672773 125845
79780 758535
990456 375419
34723 557834
322423 513235
748017 199800
799903 535651
761536 698959
433624 833767
335842 547562
152163 197644
673913 613800
865081 2077
196830 642077
107670 474660
454300 406235
510765 843705
159863 634503
715884 597338
912077 830970
390194 161820
494275 114989
546142 106103
609851 10522
754602 803015
710976 854112
268865 349307
256066 888146
883269 160607
836452 894529
724987 739118
840819 485092
272852 270812
26633 216904
969758 109507
17010 444693
281749 22067
848698 744678
258826 122837
91439 641406
980918 160187
114549 636355
772936 859981
418962 113598
922436 520011
981460 436553
322065 329783
137670 488462
570008 723131
644939 155285
6191 321370
856611 94549
884213 255601
797870 333882
730018 65052
591411 996794
709515 821727
903298 590340
159409 383721
303654 213989
707442 154370
327590 626387
545411 393189
394611 79034
155814 972794
136852 223092
657628 986932
685660 662231
363544 360776
461774 533334
813980 274198
69853 689692
461466 956744
690773 621490
749437 868917
424788 269532
503566 759467
667028 340120
637513 46973
937737 23289
499234 329317
336442 245997
778619 436832
573910 833276
610016 64869
446226 446424
185755 310061
875510 489710
559269 277861
855416 69632
418046 91227
529612 646635
282888 92087
647480 991668
947243 161246
303909 925714
168269 602836
968981 268597
298343 65170
414637 842309
392452 436693
78193 510202
31511 976732
46554 459326
231046 89206
432156 431632
813697 75729
777732 964774
604592 147804
177627 652716
861044 824817
159096 566945
765647 778302
175558 55264
331731 998961
87811 966441
622081 391005
389217 870032
156216 866278
633552 541032
946629 350948
232243 370202
305804 54724
673332 397175
412542 884022
307690 807906
20394 639132
35765 847740
161375 676011
847964 790943
572201 655070
855862 884358
510092 973816
870342 46781
393388 996351
571412 51560
62127 266465
605751 881497
610366 821832
359904 359377
