798887 272511 509
2544 243024 443
132127 576499 470
37034 766312 509
172447 332110 443
490012 856493 525
714546 893005 525
678239 315619 509
185203 228381 386
830213 247206 509
252293 727351 509
394680 586523 470
793617 64130 509
825285 969893 525
641072 719059 504
663072 573985 509
621315 57966 470
615587 171182 470
774814 506485 509
152710 373663 443
115933 804874 509
884834 871060 432
450706 428703 400
276682 904322 525
968240 447323 525
609408 605612 403
288311 45628 443
436267 699267 509
693218 75820 509
104866 311884 443
525587 318947 470
237494 400278 441
875895 943446 507
265909 848238 525
316799 871317 525
438989 802524 509
866609 123617 525
503878 552193 470
206116 370348 443
400734 89278 443
386448 20213 443
627460 569678 509
277704 411921 449
901535 847952 445
713558 442918 509
502413 477452 426
210085 965295 525
300363 87122 443
933255 25889 525
883084 494871 525
176781 116568 383
552049 475301 470
781997 619873 509
470009 287912 449
655037 498774 509
583110 980102 525
274202 893395 525
429365 645102 509
870635 363387 525
996729 961400 458
193862 339105 443
567610 390671 470
517993 215598 470
994336 377709 525
289621 416945 449
186885 915935 525
635127 71551 509
118270 640695 509
448535 950907 525
203381 133551 383
78649 875777 525
382813 682014 509
559107 433174 470
425872 502598 444
598955 33524 470
255413 202542 443
584379 717724 509
405785 773723 509
104421 249093 443
585704 797040 509
955729 826346 525
388387 387903 330
223055 199908 386
767699 80212 509
17883 848268 525
296266 647379 509
121684 152646 375
775206 11414 509
370223 736550 509
355460 226351 443
679135 728803 504
395382 770945 509
402405 976670 525
269413 736522 509
990202 882095 507
392794 6220 443
553942 531707 452
48303 975779 525
470690 468452 382
128471 405016 443
55972 779258 509
418085 203839 449
18245 622213 470
92513 816465 509
265406 130180 443
999635 160267 525
81835 770128 509
526644 472318 470
432828 282478 449
792640 403350 509
864942 258333 525
50215 91103 351
345332 421648 449
167838 680831 509
598033 350879 470
131414 608254 470
239750 355817 441
368699 769878 509
529995 254879 470
499752 392220 449
225258 845591 525
251794 343923 407
757095 705937 424
109310 853315 525
329032 805699 509
558033 49462 470
83146 486166 449
534499 279126 470
153100 993141 525
161904 629528 509
342304 753993 509
345652 352366 441
589963 729470 509
855378 161786 525
438888 383243 449
426671 52486 449
409650 407099 312
370092 458037 449
469208 1909 449
380629 449455 449
355065 993244 525
231209 781999 509
236085 294843 407
400593 82500 443
734199 173028 509
361504 442839 449
191201 823166 509
4996 654154 509
501155 132688 449
337630 705508 509
493567 358592 449
447221 439546 356
342573 228639 443
456569 764223 509
904350 988367 507
201895 382684 443
510567 922930 525
151975 902758 525
280269 559203 470
554801 808521 509
62414 320474 443
337580 218407 443
91917 802744 509
497345 929092 525
172574 104197 383
145922 601485 470
491292 438491 444
956879 503413 525
33422 623900 470
580146 867838 525
950126 951204 414
452404 237108 449
881344 526249 525
126794 570754 470
477071 921056 525
219826 565813 470
68428 715192 509
462835 245304 449
423517 230731 449
530516 434080 470
124504 721459 509
661654 14155 509
130186 180660 383
447080 12102 449
611926 83367 470
659510 294665 509
205496 690149 509
98991 935729 525
265135 387535 441
623857 974393 525
582408 755005 509
728207 194049 509
413692 684975 509
561568 954446 525
442880 533151 470
612090 624482 447
25533 884258 525
728070 521213 509
373167 796893 509
141773 157108 383
181472 471403 449
390524 880909 525
